<?xml version="1.0" encoding="utf-8"?>
<!-- Generator: Adobe Illustrator 23.0.0, SVG Export Plug-In . SVG Version: 6.00 Build 0)  -->
<svg version="1.1" id="_x36_" xmlns="http://www.w3.org/2000/svg" xmlns:xlink="http://www.w3.org/1999/xlink" x="0px" y="0px"
	 width="86px" height="14px" viewBox="0 0 86 14" style="enable-background:new 0 0 86 14;" xml:space="preserve">
<style type="text/css">
	.st0{fill:#FFFFFF;}
</style>
<g>
	<path class="st0" d="M1.4,11.9V1.9h2v8.3h5v1.7H1.4z"/>
	<path class="st0" d="M14.1,9.6L16,9.9c-0.2,0.7-0.6,1.2-1.2,1.6c-0.5,0.4-1.2,0.6-2,0.6c-1.3,0-2.2-0.4-2.8-1.2
		c-0.5-0.7-0.7-1.5-0.7-2.5c0-1.2,0.3-2.1,0.9-2.8c0.6-0.7,1.4-1,2.4-1c1.1,0,1.9,0.4,2.6,1.1c0.6,0.7,0.9,1.8,0.9,3.3h-4.8
		c0,0.6,0.2,1,0.5,1.3c0.3,0.3,0.7,0.5,1.1,0.5c0.3,0,0.6-0.1,0.8-0.2S14,9.9,14.1,9.6z M14.2,7.6c0-0.6-0.2-1-0.4-1.3
		c-0.3-0.3-0.6-0.4-1-0.4c-0.4,0-0.8,0.2-1,0.5s-0.4,0.7-0.4,1.2H14.2z"/>
	<path class="st0" d="M19.1,6.8l-1.7-0.3c0.2-0.7,0.5-1.2,1-1.6s1.2-0.5,2.1-0.5c0.9,0,1.5,0.1,1.9,0.3c0.4,0.2,0.7,0.5,0.9,0.8
		c0.2,0.3,0.3,0.9,0.3,1.7l0,2.2c0,0.6,0,1.1,0.1,1.4c0.1,0.3,0.2,0.6,0.3,1h-1.9c-0.1-0.1-0.1-0.3-0.2-0.6c0-0.1-0.1-0.2-0.1-0.2
		c-0.3,0.3-0.7,0.6-1.1,0.7s-0.8,0.2-1.2,0.2c-0.7,0-1.3-0.2-1.8-0.6s-0.6-0.9-0.6-1.5c0-0.4,0.1-0.8,0.3-1.1
		c0.2-0.3,0.5-0.6,0.8-0.7c0.4-0.2,0.9-0.3,1.5-0.4c0.9-0.2,1.5-0.3,1.9-0.5V7c0-0.4-0.1-0.6-0.3-0.8c-0.2-0.2-0.5-0.2-1-0.2
		c-0.3,0-0.6,0.1-0.8,0.2C19.4,6.3,19.2,6.5,19.1,6.8z M21.7,8.4c-0.2,0.1-0.6,0.2-1.2,0.3s-0.9,0.2-1,0.3c-0.3,0.2-0.4,0.4-0.4,0.7
		c0,0.3,0.1,0.5,0.3,0.7s0.5,0.3,0.8,0.3c0.3,0,0.7-0.1,1-0.3c0.2-0.2,0.4-0.4,0.5-0.6c0.1-0.2,0.1-0.5,0.1-0.9V8.4z"/>
	<path class="st0" d="M27.3,11.9h-1.9V4.6h1.8v1c0.3-0.5,0.6-0.8,0.8-1s0.5-0.2,0.8-0.2c0.4,0,0.9,0.1,1.3,0.4l-0.6,1.7
		c-0.3-0.2-0.6-0.3-0.9-0.3c-0.3,0-0.5,0.1-0.7,0.2c-0.2,0.1-0.3,0.4-0.4,0.8s-0.2,1.2-0.2,2.4V11.9z"/>
	<path class="st0" d="M37.5,11.9h-1.9V8.2c0-0.8,0-1.3-0.1-1.5c-0.1-0.2-0.2-0.4-0.4-0.5s-0.4-0.2-0.7-0.2c-0.3,0-0.6,0.1-0.9,0.3
		S33,6.6,32.9,6.9s-0.1,0.9-0.1,1.7v3.3h-1.9V4.6h1.8v1.1c0.6-0.8,1.4-1.2,2.4-1.2c0.4,0,0.8,0.1,1.2,0.2C36.6,4.8,36.8,5,37,5.3
		s0.3,0.5,0.4,0.8s0.1,0.7,0.1,1.3V11.9z"/>
	<path class="st0" d="M43.2,4.6h1.8v1c0.6-0.8,1.4-1.2,2.3-1.2c0.5,0,0.9,0.1,1.2,0.3s0.6,0.5,0.8,0.9c0.3-0.4,0.7-0.7,1-0.9
		s0.8-0.3,1.2-0.3c0.5,0,1,0.1,1.4,0.3c0.4,0.2,0.6,0.5,0.8,1c0.1,0.3,0.2,0.8,0.2,1.5v4.6h-1.9V7.7c0-0.7-0.1-1.2-0.2-1.4
		c-0.2-0.3-0.5-0.4-0.8-0.4c-0.3,0-0.5,0.1-0.8,0.2c-0.2,0.2-0.4,0.4-0.5,0.7c-0.1,0.3-0.2,0.8-0.2,1.5v3.5h-1.9v-4
		c0-0.7,0-1.2-0.1-1.4s-0.2-0.4-0.3-0.5s-0.3-0.2-0.6-0.2c-0.3,0-0.6,0.1-0.8,0.2s-0.4,0.4-0.5,0.7s-0.2,0.8-0.2,1.5v3.5h-1.9V4.6z"
		/>
	<path class="st0" d="M55.3,8.2c0-0.6,0.2-1.3,0.5-1.9s0.8-1.1,1.3-1.4c0.6-0.3,1.2-0.5,1.9-0.5c1.1,0,2,0.4,2.7,1.1
		c0.7,0.7,1.1,1.6,1.1,2.7c0,1.1-0.4,2-1.1,2.7c-0.7,0.7-1.6,1.1-2.7,1.1c-0.7,0-1.3-0.2-1.9-0.5c-0.6-0.3-1.1-0.7-1.4-1.3
		C55.5,9.7,55.3,9,55.3,8.2z M57.3,8.3c0,0.7,0.2,1.3,0.5,1.7s0.8,0.6,1.3,0.6c0.5,0,0.9-0.2,1.3-0.6c0.3-0.4,0.5-0.9,0.5-1.7
		c0-0.7-0.2-1.3-0.5-1.6C60,6.2,59.6,6,59.1,6c-0.5,0-0.9,0.2-1.3,0.6S57.3,7.5,57.3,8.3z"/>
	<path class="st0" d="M66.2,11.9h-1.9V4.6H66v1c0.3-0.5,0.6-0.8,0.8-1c0.2-0.2,0.5-0.2,0.8-0.2c0.4,0,0.9,0.1,1.3,0.4l-0.6,1.7
		c-0.3-0.2-0.6-0.3-0.9-0.3c-0.3,0-0.5,0.1-0.7,0.2c-0.2,0.1-0.3,0.4-0.4,0.8c-0.1,0.4-0.2,1.2-0.2,2.4V11.9z"/>
	<path class="st0" d="M74,9.6l1.9,0.3c-0.2,0.7-0.6,1.2-1.2,1.6c-0.5,0.4-1.2,0.6-2,0.6c-1.3,0-2.2-0.4-2.8-1.2
		c-0.5-0.7-0.7-1.5-0.7-2.5c0-1.2,0.3-2.1,0.9-2.8c0.6-0.7,1.4-1,2.4-1c1.1,0,1.9,0.4,2.6,1.1C75.7,6.2,76,7.3,76,8.8h-4.8
		c0,0.6,0.2,1,0.5,1.3c0.3,0.3,0.7,0.5,1.1,0.5c0.3,0,0.6-0.1,0.8-0.2S73.9,9.9,74,9.6z M74.1,7.6c0-0.6-0.2-1-0.4-1.3
		c-0.3-0.3-0.6-0.4-1-0.4c-0.4,0-0.8,0.2-1,0.5s-0.4,0.7-0.4,1.2H74.1z"/>
	<path class="st0" d="M81,11.4l1.8-3.1L81,5.2h1.5l2.2,3.2l-2.2,3.1H81z"/>
</g>
</svg>
